[
  {
    "id": "",
    "HMH_ID": "",
    "display_title": "Teacher Edition, G6",
    "categorization": "Core Components",
    "component_type": "TE",
    "card": 1,
    "ISBN": [
      {
        "type": "primary"
      }
    ],
    "uri": {
      "relative_url": "/content/hsp/math/gomath2015/ca/gr6/ete_9780544273146_/html5/index.html",
      "platform_url": "https://www-review-cert-tc1.thinkcentral.com"
    },
    "categoryOrder": 1,
    "cardOrder": 1
  },
  {
    "id": "",
    "HMH_ID": "",
    "display_title": "Mathematical Practices PD Videos, GK-6",
    "categorization": "Other Resources",
    "card": 12,
    "uri": {
      "relative_url": "/content/hsp/math/gomath2012/na/common/gomath_pd_videos_9780547893204_/index.html",
      "platform_url": "https://www-review-cert-tc1.thinkcentral.com"
    },
    "categoryOrder": 4,
    "cardOrder": 23
  },
  {
    "id": "",
    "HMH_ID": "",
    "display_title": "Interactive Student Edition, G6",
    "categorization": "Core Components",
    "component_type": "SE",
    "card": 15,
    "ISBN": [
      {
        "type": "primary",
        "value": "9780544221079"
      }
    ],
    "uri": {
      "relative_url": "/content/hsp/math/gomath/ca/gr6/online_interactive_student_book_9780544221079_/index.html",
      "platform_url": "https://www-review-cert-tc1.thinkcentral.com"
    },
    "categoryOrder": 1,
    "cardOrder": 5
  },
  {
    "id": "",
    "HMH_ID": "",
    "display_title": "Student Edition eBook, G6",
    "categorization": "Core Components",
    "component_type": "SE",
    "card": 2,
    "ISBN": [
      {
        "type": "primary"
      }
    ],
    "uri": {
      "relative_url": "/content/hsp/math/gomath2015/ca/gr6/ese_9780544272729_/html5/index.html",
      "platform_url": "https://www-review-cert-tc1.thinkcentral.com"
    },
    "categoryOrder": 1,
    "cardOrder": 3
  },
  {
    "id": "",
    "HMH_ID": "",
    "display_title": "Practice Book (SE), G6",
    "categorization": "Other Resources",
    "card": 12,
    "uri": {
      "relative_url": "/content/hsp/math/gomath2015/ca/gr6/practice_workbook_se_9780544226180_/index.html",
      "platform_url": "https://www-review-cert-tc1.thinkcentral.com"
    },
    "categoryOrder": 4,
    "cardOrder": 23
  },
  {
    "id": "",
    "HMH_ID": "",
    "display_title": "Go Math! Teacher Resources Book, G6",
    "categorization": "Other Resources",
    "card": 12,
    "uri": {
      "relative_url": "/content/hsp/math/gomath2015/ca/gr6/teacher_resource_book_9780544245716_/index.html",
      "platform_url": "https://www-review-cert-tc1.thinkcentral.com"
    },
    "categoryOrder": 4,
    "cardOrder": 23
  },
  {
    "id": "",
    "HMH_ID": "",
    "display_title": "Interactive Student Edition (Teacher), G6",
    "categorization": "Core Components",
    "component_type": "TE",
    "card": 15,
    "ISBN": [
      {
        "type": "primary",
        "value": "9780544221567"
      }
    ],
    "uri": {
      "relative_url": "/content/hsp/math/gomath/ca/gr6/online_interactive_teacher_book_9780544221567_/index.html",
      "platform_url": "https://www-review-cert-tc1.thinkcentral.com"
    },
    "categoryOrder": 1,
    "cardOrder": 5
  },
  {
    "id": "",
    "HMH_ID": "",
    "display_title": "Math on the Spot Videos",
    "categorization": "Other Resources",
    "card": 12,
    "uri": {
      "relative_url": "/content/hsp/math/gomath2015/na/grk-6/on_the_spot_videos_9780544251519_/index.html",
      "platform_url": "https://www-review-cert-tc1.thinkcentral.com"
    },
    "categoryOrder": 4,
    "cardOrder": 23
  },
  {
    "id": "",
    "HMH_ID": "",
    "display_title": "Getting Ready for SBAC (SE), G6",
    "categorization": "Other Resources",
    "card": 12,
    "uri": {
      "relative_url": "/content/hsp/math/hspmath/na/gr6/getting_ready_for_smarter_balanced_assessment_se_9780544250413_/launch.html",
      "platform_url": "https://www-review-cert-tc1.thinkcentral.com"
    },
    "categoryOrder": 4,
    "cardOrder": 23
  }
]