[
  {
    "id": "0544385977",
    "HMH_ID": "0544385977",
    "display_title": "Interactive Teacher Edition",
    "categorization": "Core Components",
    "component_type": "TE",
    "card": 15,
    "ISBN": [
      {
        "type": "primary",
        "value": "9780544439917"
      }
    ],
    "uri": {
      "relative_url": "/content/hmof/math/hsm/ca/gr11/ise_te_aga_9780544439917_/landing_page/index.html",
      "platform_url": "https://my-review-cert.hrw.com"
    },
    "categoryOrder": 1,
    "cardOrder": 5
  },
  {
    "id": "0544385977",
    "HMH_ID": "0544385977",
    "display_title": "Teacher Resources",
    "categorization": "Core Components",
    "component_type": "TE",
    "card": 4,
    "uri": {
      "relative_url": "/content/hmof/math/hsm/ca/gr11/ete_aga_9780544385979_/index.html",
      "platform_url": "https://my-review-cert.hrw.com"
    },
    "categoryOrder": 1,
    "cardOrder": 10
  },
  {
    "id": "0544385977",
    "HMH_ID": "0544385977",
    "display_title": "Interactive Student Edition",
    "categorization": "Core Components",
    "component_type": "SE",
    "card": 15,
    "ISBN": [
      {
        "type": "primary",
        "value": "9780544386341"
      }
    ],
    "uri": {
      "relative_url": "/content/hmof/math/hsm/ca/gr11/ise_se_aga_9780544386341_/landing_page/index.html",
      "platform_url": "https://my-review-cert.hrw.com"
    },
    "categoryOrder": 1,
    "cardOrder": 5
  },
  {
    "id": "0544385977",
    "HMH_ID": "0544385977",
    "display_title": "Student Resources",
    "categorization": "Core Components",
    "component_type": "SE",
    "card": 14,
    "uri": {
      "relative_url": "/content/hmof/math/hsm/ca/gr11/ese_aga_9780544385962_/index.html",
      "platform_url": "https://my-review-cert.hrw.com"
    },
    "categoryOrder": 1,
    "cardOrder": 15
  }
]