[
  {
    "id": "0544441524",
    "HMH_ID": "0544441524",
    "display_title": "Interactive Teacher Edition",
    "categorization": "Core Components",
    "component_type": "TE",
    "card": 15,
    "ISBN": [
      {
        "type": "primary",
        "value": "9780544440272"
      }
    ],
    "uri": {
      "relative_url": "/content/hmof/math/hsm/ca/gr11/ise_te_int_9780544440272_/landing_page/index.html",
      "platform_url": "https://my-review-cert.hrw.com"
    },
    "categoryOrder": 1,
    "cardOrder": 5
  },
  {
    "id": "0544441524",
    "HMH_ID": "0544441524",
    "display_title": "Teacher Resources",
    "categorization": "Core Components",
    "component_type": "TE",
    "card": 4,
    "uri": {
      "relative_url": "/content/hmof/math/hsm/ca/gr11/ete_int_9780544441521_/index.html",
      "platform_url": "https://my-review-cert.hrw.com"
    },
    "categoryOrder": 1,
    "cardOrder": 10
  },
  {
    "id": "0544441524",
    "HMH_ID": "0544441524",
    "display_title": "Interactive Student Edition",
    "categorization": "Core Components",
    "component_type": "SE",
    "card": 15,
    "ISBN": [
      {
        "type": "primary",
        "value": "9780544440159"
      }
    ],
    "uri": {
      "relative_url": "/content/hmof/math/hsm/ca/gr11/ise_se_int_9780544440159_/landing_page/index.html",
      "platform_url": "https://my-review-cert.hrw.com"
    },
    "categoryOrder": 1,
    "cardOrder": 5
  },
  {
    "id": "0544441524",
    "HMH_ID": "0544441524",
    "display_title": "Student Resources",
    "categorization": "Core Components",
    "component_type": "SE",
    "card": 14,
    "uri": {
      "relative_url": "/content/hmof/math/hsm/ca/gr11/ese_int_9780544441583_/index.html",
      "platform_url": "https://my-review-cert.hrw.com"
    },
    "categoryOrder": 1,
    "cardOrder": 15
  }
]