[
  {
    "id": "0544083075",
    "HMH_ID": "0544083075",
    "display_title": "ExamView",
    "categorization": "Core Components",
    "component_type": "TE",
    "card": 11,
    "ISBN": [
      {
        "type": "primary",
        "value": "9780544083073"
      }
    ],
    "uri": {
      "relative_url": "/content/hmof/math/gomath/na/gr7/interactive_student_edition_9780544083073_/examview_installer/9780544063311.html",
      "platform_url": "https://my-review-cert.hrw.com"
    },
    "categoryOrder": 1,
    "cardOrder": 22
  },
  {
    "id": "0544083075",
    "HMH_ID": "0544083075",
    "display_title": "Interactive Student Edition (TE)",
    "categorization": "Core Components",
    "component_type": "TE",
    "card": 15,
    "ISBN": [
      {
        "type": "primary",
        "value": "9780544518988"
      }
    ],
    "uri": {
      "relative_url": "/content/hmof/math/gomath/na/gr7/online_interactive_teacher_book_9780544518988_/index.html",
      "platform_url": "https://my-review-cert.hrw.com"
    },
    "categoryOrder": 1,
    "cardOrder": 5
  },
  {
    "id": "0544083075",
    "HMH_ID": "0544083075",
    "display_title": "Teacher Resources",
    "categorization": "Core Components",
    "component_type": "TE",
    "card": 4,
    "uri": {
      "relative_url": "/content/hmof/social_studies/hmhss/tx/gr6/contemporary_world_studies_ete_9780544329607_/landing_page/index.html",
      "platform_url": "https://my-review-cert.hrw.com"
    },
    "categoryOrder": 1,
    "cardOrder": 10
  },
  {
    "id": "0544083075",
    "HMH_ID": "0544083075",
    "display_title": "Teacher Edition and Rsources",
    "categorization": "Core Components",
    "component_type": "SE",
    "card": 15,
    "ISBN": [
      {
        "type": "primary",
        "value": "9780544083073"
      }
    ],
    "uri": {
      "relative_url": "/content/hmof/math/gomath/na/gr7/interactive_student_edition_9780544083073_/book_pages/te/index1.html",
      "platform_url": "https://my-review-cert.hrw.com"
    },
    "categoryOrder": 1,
    "cardOrder": 5
  },
  {
    "id": "0544083075",
    "HMH_ID": "0544083075",
    "display_title": "Interactive Answers and Solutions",
    "categorization": "Core Components",
    "component_type": "SE",
    "card": 15,
    "ISBN": [
      {
        "type": "primary",
        "value": "9780544083073"
      }
    ],
    "uri": {
      "relative_url": "/content/hmof/math/gomath/na/gr7/interactive_student_edition_9780544083073_/IAS/Interactive_Answers_and_Solutions-Grade_7.zip",
      "platform_url": "https://my-review-cert.hrw.com"
    },
    "categoryOrder": 1,
    "cardOrder": 5
  },
  {
    "id": "0544083075",
    "HMH_ID": "0544083075",
    "display_title": "Teacher One Stop",
    "categorization": "Core Components",
    "component_type": "SE",
    "card": 15,
    "ISBN": [
      {
        "type": "primary",
        "value": "9780544083073"
      }
    ],
    "uri": {
      "relative_url": "/content/hmof/math/gomath/na/gr7/interactive_student_edition_9780544083073_/TOS_installer/9780544083073.html",
      "platform_url": "https://my-review-cert.hrw.com"
    },
    "categoryOrder": 1,
    "cardOrder": 5
  },
  {
    "id": "0544083075",
    "HMH_ID": "0544083075",
    "display_title": "Interactive Student Edition",
    "categorization": "Core Components",
    "component_type": "SE",
    "card": 15,
    "ISBN": [
      {
        "type": "primary",
        "value": "9780544518933"
      }
    ],
    "uri": {
      "relative_url": "/content/hmof/math/gomath/na/gr7/online_interactive_student_book_9780544518933_/index.html",
      "platform_url": "https://my-review-cert.hrw.com"
    },
    "categoryOrder": 1,
    "cardOrder": 5
  },
  {
    "id": "0544083075",
    "HMH_ID": "0544083075",
    "display_title": "Student Edition",
    "categorization": "Core Components",
    "component_type": "SE",
    "card": 15,
    "ISBN": [
      {
        "type": "primary",
        "value": "9780544083073"
      }
    ],
    "uri": {
      "relative_url": "/content/hmof/math/gomath/na/gr7/interactive_student_edition_9780544083073_",
      "platform_url": "https://my-review-cert.hrw.com"
    },
    "categoryOrder": 1,
    "cardOrder": 5
  }
]