[
  {
    "id": "",
    "HMH_ID": "",
    "display_title": "HSP Science Teacher Edition GK, NY",
    "categorization": "Other Resources",
    "card": 12,
    "uri": {
      "relative_url": "/content/hsp/science/hspscience/ny/grk/te_9780153754685_/eteNav.html?page=toc",
      "platform_url": "https://www-review-cert-tc1.thinkcentral.com"
    },
    "categoryOrder": 4,
    "cardOrder": 23
  }
]