[
  {
    "id": "",
    "HMH_ID": "",
    "display_title": "Getting Ready for SBAC (SE), G1",
    "categorization": "Other Resources",
    "card": 12,
    "uri": {
      "relative_url": "/content/hsp/math/hspmath/na/gr1/getting_ready_for_smarter_balanced_assessment_se_9780544250352_/launch.html",
      "platform_url": "https://www-review-cert-tc1.thinkcentral.com"
    },
    "categoryOrder": 4,
    "cardOrder": 23
  },
  {
    "id": "",
    "HMH_ID": "",
    "display_title": "Mathematical Practices PD Videos, GK-6",
    "categorization": "Other Resources",
    "card": 12,
    "uri": {
      "relative_url": "/content/hsp/math/gomath2012/na/common/gomath_pd_videos_9780547893204_/index.html",
      "platform_url": "https://www-review-cert-tc1.thinkcentral.com"
    },
    "categoryOrder": 4,
    "cardOrder": 23
  },
  {
    "id": "",
    "HMH_ID": "",
    "display_title": "Interactive Student Edition, G1",
    "categorization": "Core Components",
    "component_type": "SE",
    "card": 15,
    "ISBN": [
      {
        "type": "primary",
        "value": "9780544221017"
      }
    ],
    "uri": {
      "relative_url": "/content/hsp/math/gomath/ca/gr1/online_interactive_student_book_9780544221017_/index.html",
      "platform_url": "https://www-review-cert-tc1.thinkcentral.com"
    },
    "categoryOrder": 1,
    "cardOrder": 5
  },
  {
    "id": "",
    "HMH_ID": "",
    "display_title": "Practice Book (TE), G1",
    "categorization": "Other Resources",
    "card": 12,
    "uri": {
      "relative_url": "/content/hsp/math/gomath2015/ca/gr1/practice_workbook_te_9780544226227_/index.html",
      "platform_url": "https://www-review-cert-tc1.thinkcentral.com"
    },
    "categoryOrder": 4,
    "cardOrder": 23
  },
  {
    "id": "",
    "HMH_ID": "",
    "display_title": "Go Math! Teacher Resources Book, G1",
    "categorization": "Other Resources",
    "card": 12,
    "uri": {
      "relative_url": "/content/hsp/math/gomath2015/ca/gr1/teacher_resource_book_9780544245648_/index.html",
      "platform_url": "https://www-review-cert-tc1.thinkcentral.com"
    },
    "categoryOrder": 4,
    "cardOrder": 23
  },
  {
    "id": "",
    "HMH_ID": "",
    "display_title": "Student Edition eBook, G1",
    "categorization": "Core Components",
    "component_type": "SE",
    "card": 2,
    "ISBN": [
      {
        "type": "primary"
      }
    ],
    "uri": {
      "relative_url": "/content/hsp/math/gomath2015/ca/gr1/ese_9780544273924_/html5/index.html",
      "platform_url": "https://www-review-cert-tc1.thinkcentral.com"
    },
    "categoryOrder": 1,
    "cardOrder": 3
  },
  {
    "id": "",
    "HMH_ID": "",
    "display_title": "Teacher Edition, G1",
    "categorization": "Core Components",
    "component_type": "TE",
    "card": 1,
    "ISBN": [
      {
        "type": "primary"
      }
    ],
    "uri": {
      "relative_url": "/content/hsp/math/gomath2015/ca/gr1/ete_9780544273351_/html5/index.html",
      "platform_url": "https://www-review-cert-tc1.thinkcentral.com"
    },
    "categoryOrder": 1,
    "cardOrder": 1
  },
  {
    "id": "",
    "HMH_ID": "",
    "display_title": "Practice Book (SE), G1",
    "categorization": "Other Resources",
    "card": 12,
    "uri": {
      "relative_url": "/content/hsp/math/gomath2015/ca/gr1/practice_workbook_se_9780544226098_/index.html",
      "platform_url": "https://www-review-cert-tc1.thinkcentral.com"
    },
    "categoryOrder": 4,
    "cardOrder": 23
  },
  {
    "id": "",
    "HMH_ID": "",
    "display_title": "Math on the Spot Videos",
    "categorization": "Other Resources",
    "card": 12,
    "uri": {
      "relative_url": "/content/hsp/math/gomath2015/na/grk-6/on_the_spot_videos_9780544251519_/index.html",
      "platform_url": "https://www-review-cert-tc1.thinkcentral.com"
    },
    "categoryOrder": 4,
    "cardOrder": 23
  },
  {
    "id": "",
    "HMH_ID": "",
    "display_title": "Interactive Student Edition (Teacher), G1",
    "categorization": "Core Components",
    "component_type": "TE",
    "card": 15,
    "ISBN": [
      {
        "type": "primary",
        "value": "9780544221246"
      }
    ],
    "uri": {
      "relative_url": "/content/hsp/math/gomath/ca/gr1/online_interactive_teacher_book_9780544221246_/index.html",
      "platform_url": "https://www-review-cert-tc1.thinkcentral.com"
    },
    "categoryOrder": 1,
    "cardOrder": 5
  }
]