[
  {
    "id": "72484381e78b4da6b005ef27e625764c",
    "HMH_ID": "72484381e78b4da6b005ef27e625764c",
    "display_title": "Student Resources",
    "categorization": "Core Components",
    "component_type": "SE",
    "card": 14,
    "uri": {
      "relative_url": "/content/hmof/language_arts/hmhcollections/resources/gr8/student_resources_9780544094321_",
      "platform_url": "https://my-review-cert.hrw.com"
    },
    "categoryOrder": 1,
    "cardOrder": 15
  },
  {
    "id": "72484381e78b4da6b005ef27e625764c",
    "HMH_ID": "72484381e78b4da6b005ef27e625764c",
    "display_title": "Interactive Writing Lessons",
    "categorization": "Core Components",
    "component_type": "SE",
    "card": 3,
    "ISBN": [
      {
        "type": "primary",
        "value": "9780544398436"
      }
    ],
    "uri": {
      "relative_url": "/content/hmof/language_arts/hmhcollections/na/gr8/dlo_landing_page_9780544398436_/Student_Landing_Page/index.html?tab=1",
      "platform_url": "https://my-review-cert.hrw.com"
    },
    "categoryOrder": 1,
    "cardOrder": 5
  },
  {
    "id": "72484381e78b4da6b005ef27e625764c",
    "HMH_ID": "72484381e78b4da6b005ef27e625764c",
    "display_title": "Interactive Speaking and Listening Lessons",
    "categorization": "Core Components",
    "component_type": "SE",
    "card": 3,
    "ISBN": [
      {
        "type": "primary",
        "value": "9780544398436"
      }
    ],
    "uri": {
      "relative_url": "/content/hmof/language_arts/hmhcollections/na/gr8/dlo_landing_page_9780544398436_/Student_Landing_Page/index.html?tab=2",
      "platform_url": "https://my-review-cert.hrw.com"
    },
    "categoryOrder": 1,
    "cardOrder": 5
  },
  {
    "id": "72484381e78b4da6b005ef27e625764c",
    "HMH_ID": "72484381e78b4da6b005ef27e625764c",
    "display_title": "Student eBook",
    "categorization": "Core Components",
    "component_type": "SE",
    "card": 2,
    "ISBN": [
      {
        "type": "primary"
      }
    ],
    "uri": {
      "relative_url": "/content/hmof/language_arts/hmhcollections/na/gr8/ese_9780544088207_",
      "platform_url": "https://my-review-cert.hrw.com"
    },
    "categoryOrder": 1,
    "cardOrder": 3
  },
  {
    "id": "72484381e78b4da6b005ef27e625764c",
    "HMH_ID": "72484381e78b4da6b005ef27e625764c",
    "display_title": "FYI Site",
    "categorization": "Other Resources",
    "card": 12,
    "uri": {
      "relative_url": "/",
      "platform_url": "https://www.hmhfyi.com"
    },
    "categoryOrder": 4,
    "cardOrder": 23
  },
  {
    "id": "72484381e78b4da6b005ef27e625764c",
    "HMH_ID": "72484381e78b4da6b005ef27e625764c",
    "display_title": "myNotebook",
    "categorization": "Core Components",
    "card": 6,
    "ISBN": [
      {
        "type": "primary",
        "value": "9780544094574"
      }
    ],
    "uri": {
      "relative_url": "/content/hmof/language_arts/hmhcollections/resources/common/mnb_9780544094574_/index.html ",
      "platform_url": "https://my-review-cert.hrw.com"
    },
    "categoryOrder": 1,
    "cardOrder": 20
  }
]